<svg width="138" height="35" viewBox="0 0 138 35" fill="none" xmlns="http://www.w3.org/2000/svg">
<path d="M10.948 0.837437C10.948 2.35908 10.9533 3.88073 10.9533 5.40238C10.9533 7.1882 10.948 8.97402 10.9586 10.7598C10.9586 10.9659 10.9269 11.0452 10.6891 11.0452C7.46088 11.0346 4.23267 11.0399 1.00445 11.0399C0.835377 11.0399 0.734985 11.0346 0.734985 10.8074C0.745552 7.51049 0.740274 4.20831 0.740274 0.911406C0.740274 0.884988 0.745556 0.858571 0.745556 0.832153C4.14813 0.837437 7.5507 0.837437 10.948 0.837437Z" fill="#448BC9"/>
<path d="M22.7298 0.837437C22.7298 2.07906 22.7245 3.32068 22.7245 4.5623C22.7245 6.63343 22.7192 8.69928 22.7298 10.7704C22.7298 10.987 22.6716 11.0504 22.455 11.0504C19.2321 11.0452 16.0092 11.0452 12.7862 11.0452C12.6224 11.0452 12.5115 11.0504 12.5115 10.818C12.5168 7.53163 12.5168 4.25058 12.5168 0.964241C12.5168 0.921973 12.5273 0.879705 12.5326 0.832153C15.9299 0.837437 19.3325 0.837437 22.7298 0.837437Z" fill="#448BC9"/>
<path d="M34.4592 0.83728C34.4645 0.932383 34.475 1.02749 34.475 1.12787C34.475 4.32439 34.475 7.51562 34.475 10.7121C34.475 11.0873 34.512 11.045 34.1316 11.045C30.9457 11.045 27.7597 11.045 24.5738 11.0503C24.3254 11.0503 24.2515 11.0027 24.2515 10.7386C24.262 7.43637 24.2568 4.13947 24.2568 0.83728C27.6593 0.83728 31.0619 0.83728 34.4592 0.83728Z" fill="#448BC9"/>
<path d="M0.697721 24.3494C0.718855 24.3546 0.739987 24.3546 0.761121 24.3599C0.845657 24.4656 0.835091 24.5924 0.835091 24.7139C0.835091 27.884 0.835091 31.0541 0.835091 34.2242C0.835091 34.3193 0.840376 34.4197 0.803391 34.5095C0.787541 34.5412 0.771691 34.5729 0.745274 34.5994C0.63432 34.5518 0.697721 34.4567 0.697721 34.388C0.697721 31.0436 0.697721 27.6938 0.697721 24.3494Z" fill="#CFE1F1"/>
<path d="M0.750732 34.5994C0.750732 34.5783 0.756015 34.5624 0.756015 34.5413C0.856401 34.4462 0.983204 34.4621 1.10472 34.4621C4.26954 34.4621 7.42908 34.4621 10.5939 34.4621C10.7154 34.4621 10.8422 34.4568 10.9426 34.5466C10.9426 34.5624 10.9426 34.5836 10.9426 34.5994C7.5506 34.5994 4.14802 34.5994 0.750732 34.5994Z" fill="#73A8D6"/>
<path d="M45.7923 12.4133C46.252 12.1122 46.6747 11.8374 47.1449 11.6472C49.1262 10.8494 51.06 10.8758 52.8775 12.0911C54.0082 12.8466 54.769 13.9244 55.2128 15.203C55.8944 17.1421 55.9631 19.1181 55.3291 21.0783C54.5154 23.6038 52.719 25.0832 50.1459 25.6062C48.3654 25.9708 46.5901 25.7647 44.836 25.379C44.2707 25.2522 43.7159 25.0832 43.1823 24.856C43.0343 24.7926 42.9709 24.7186 42.9709 24.5495C42.9762 17.8131 42.9762 11.0766 42.9709 4.34016C42.9709 4.15524 43.0185 4.10768 43.2034 4.10768C43.9854 4.11825 44.7726 4.11825 45.5546 4.10768C45.7501 4.1024 45.7976 4.14995 45.7976 4.35073C45.7923 6.92907 45.7923 9.5127 45.7923 12.0911C45.7923 12.1862 45.7923 12.2813 45.7923 12.4133Z" fill="black"/>
<path d="M76.5579 14.8118C76.5579 11.3353 76.5579 7.85346 76.5526 4.37692C76.5526 4.16029 76.6002 4.10217 76.8221 4.10217C80.4571 4.11274 84.0974 4.10746 87.7325 4.10217C87.928 4.10217 88.002 4.13387 87.9967 4.3505C87.9808 5.10075 87.9861 5.84573 87.9967 6.59598C88.002 6.79676 87.9544 6.85488 87.7431 6.85488C85.1277 6.84431 82.5124 6.85488 79.8971 6.84431C79.6752 6.84431 79.6276 6.89714 79.6276 7.11377C79.6382 8.92601 79.6382 10.7435 79.6276 12.5558C79.6276 12.7618 79.6752 12.8147 79.8865 12.8147C82.5018 12.8094 85.1172 12.8094 87.7325 12.8041C87.928 12.8041 88.002 12.8358 87.9967 13.0577C87.9808 13.808 87.9808 14.5529 87.9967 15.3032C88.002 15.5092 87.9438 15.5621 87.7378 15.5621C85.133 15.5568 82.523 15.5621 79.9182 15.5515C79.6963 15.5515 79.6276 15.5885 79.6276 15.8315C79.6382 18.9752 79.6329 22.1189 79.6382 25.2626C79.6382 25.4845 79.5853 25.5373 79.3687 25.532C78.5339 25.5162 77.6938 25.5162 76.8591 25.532C76.6266 25.5373 76.5526 25.4845 76.5526 25.2362C76.5632 21.7702 76.5579 18.2937 76.5579 14.8118Z" fill="black"/>
<path d="M5.84893 22.8167C4.22689 22.8167 2.61014 22.8114 0.988108 22.822C0.797902 22.822 0.734497 22.785 0.734497 22.5789C0.739781 19.3401 0.739781 16.1013 0.734497 12.8626C0.734497 12.6565 0.792616 12.5984 0.998672 12.5984C4.22689 12.6037 7.46039 12.6037 10.6886 12.5984C10.8947 12.5984 10.9528 12.6512 10.9528 12.8626C10.9475 16.1013 10.9475 19.3401 10.9528 22.5789C10.9528 22.7797 10.8947 22.8272 10.6992 22.822C9.08771 22.8114 7.47096 22.8167 5.84893 22.8167Z" fill="#448BC9"/>
<path d="M10.9477 34.5455C7.55044 34.5455 4.15843 34.5455 0.761142 34.5402C0.761142 33.5892 0.755859 32.6382 0.755859 31.6924C0.755859 29.3624 0.755859 27.0324 0.755859 24.7023C0.755859 24.5861 0.76643 24.4752 0.76643 24.3589C4.07918 24.3589 7.38665 24.3589 10.6994 24.3536C10.8738 24.3536 10.9636 24.3695 10.9636 24.5861C10.9583 27.8724 10.9583 31.1535 10.9583 34.4398C10.953 34.4768 10.9477 34.5085 10.9477 34.5455Z" fill="#448BC9"/>
<path d="M123.285 21.4277C123.285 22.3364 123.285 23.2029 123.285 24.0694C123.285 24.1645 123.233 24.2068 123.164 24.2491C121.838 25.1261 120.385 25.6228 118.8 25.7232C117.717 25.7918 116.639 25.7813 115.582 25.496C113.886 25.0363 112.703 23.932 111.836 22.4527C110.98 20.9944 110.742 19.3935 110.848 17.7292C110.938 16.271 111.329 14.9078 112.206 13.719C113.437 12.0336 115.122 11.2041 117.194 11.1565C118.773 11.1196 120.205 11.5105 121.389 12.6095C122.519 13.6556 123.122 14.9765 123.391 16.4717C123.513 17.1375 123.55 17.8138 123.555 18.4953C123.555 18.7067 123.497 18.7542 123.291 18.7489C120.173 18.7437 117.056 18.7489 113.939 18.7384C113.664 18.7384 113.617 18.8018 113.648 19.0659C113.86 20.8518 114.71 22.1726 116.422 22.8436C117.384 23.2188 118.388 23.1976 119.386 23.0603C120.755 22.8701 121.986 22.347 123.111 21.5545C123.153 21.5122 123.201 21.4805 123.285 21.4277Z" fill="black"/>
<path d="M109.553 11.4417C109.173 12.2501 108.803 13.0373 108.438 13.8193C105.517 20.0433 102.595 26.2672 99.6784 32.4965C99.5886 32.6814 99.4987 32.7501 99.2874 32.7501C98.3469 32.7342 97.4065 32.7448 96.429 32.7448C96.7038 32.1583 96.9627 31.5983 97.2268 31.0382C98.5266 28.2697 99.8263 25.4958 101.126 22.7273C101.2 22.5688 101.189 22.4367 101.115 22.2835C99.3719 18.7488 97.6389 15.2194 95.8954 11.6848C95.7739 11.4364 95.7739 11.4364 96.0592 11.4364C96.931 11.4364 97.8027 11.447 98.6745 11.4312C98.9017 11.4259 99.0126 11.5051 99.1078 11.7059C100.312 14.2473 101.528 16.7886 102.748 19.3458C102.87 19.2349 102.907 19.0869 102.965 18.9601C104.08 16.5297 105.194 14.0993 106.299 11.6636C106.378 11.4946 106.462 11.4312 106.647 11.4364C107.53 11.447 108.407 11.4417 109.289 11.4417C109.374 11.4312 109.448 11.4364 109.553 11.4417Z" fill="black"/>
<path d="M17.6048 12.6512C20.4526 12.6512 22.6823 14.8914 22.677 17.7498C22.677 20.5131 20.3998 22.7691 17.6207 22.7691C14.8046 22.7691 12.538 20.5025 12.538 17.6917C12.5432 14.9073 14.8099 12.6512 17.6048 12.6512Z" fill="#ED7E4A"/>
<path d="M68.9606 8.51941C68.9606 9.43874 68.9659 10.3105 68.9553 11.177C68.95 11.3883 69.0081 11.4359 69.2142 11.4359C70.5351 11.4253 71.8559 11.4359 73.1768 11.4253C73.367 11.4253 73.4357 11.4623 73.4304 11.6684C73.4146 12.3394 73.4146 13.0051 73.4304 13.6761C73.4357 13.8874 73.3881 13.9561 73.161 13.9561C71.8348 13.9403 70.5034 13.9508 69.1719 13.9456C69.0293 13.9456 68.9553 13.9508 68.9553 14.1358C68.9659 16.4499 68.9659 18.7641 68.9711 21.0836C68.9711 21.3583 69.0187 21.6278 69.0874 21.8919C69.341 22.8324 70.0595 23.3079 71.0687 23.2657C72.0673 23.2234 72.976 22.9011 73.8425 22.4361C73.9323 22.3886 74.0222 22.3358 74.149 22.2671C74.149 22.9803 74.112 23.6566 74.1595 24.3276C74.1965 24.7979 74.0169 24.9986 73.6048 25.173C72.1571 25.7806 70.6777 26.0025 69.1508 25.5957C67.3333 25.1096 66.3083 23.7887 66.2132 21.9025C66.1075 19.9053 66.1815 17.9188 66.1603 15.9322C66.155 15.3404 66.1498 14.7539 66.1656 14.1622C66.1709 13.9825 66.1128 13.9456 65.9437 13.9456C65.2833 13.9561 64.6228 13.9508 63.9624 13.9456C63.8831 13.9456 63.7616 14.0037 63.7299 13.8927C63.6982 13.7818 63.6982 13.6603 63.8092 13.5546C64.0998 13.2851 64.3745 12.9998 64.6545 12.7251C66.0494 11.3566 67.4442 9.98822 68.8391 8.6198C68.8655 8.59866 68.8919 8.57753 68.9606 8.51941Z" fill="black"/>
<path d="M90.9399 14.812C90.9399 11.3354 90.9399 7.85891 90.9346 4.37708C90.9346 4.16046 90.9821 4.10234 91.204 4.10762C91.9807 4.12347 92.7521 4.11819 93.5288 4.10762C93.7031 4.10762 93.7454 4.14989 93.7454 4.32425C93.7401 11.3249 93.7401 18.3255 93.7454 25.3209C93.7454 25.4899 93.7031 25.5428 93.5288 25.5375C92.7468 25.5269 91.9596 25.5269 91.1776 25.5375C90.9768 25.5428 90.9346 25.4847 90.9346 25.2945C90.9399 21.8021 90.9399 18.3044 90.9399 14.812Z" fill="black"/>
<path d="M135.57 15.214C135.105 14.8019 134.64 14.4162 134.09 14.1467C132.923 13.5814 131.708 13.8086 130.83 14.7702C129.98 15.7001 129.557 16.799 129.557 18.0565C129.552 20.4605 129.552 22.8645 129.562 25.2685C129.562 25.4851 129.51 25.5485 129.288 25.5485C128.522 25.5327 127.755 25.538 126.989 25.5485C126.804 25.5485 126.73 25.5168 126.73 25.3055C126.736 20.7617 126.736 16.2179 126.73 11.6793C126.73 11.4786 126.789 11.431 126.984 11.4363C127.761 11.4469 128.532 11.4469 129.309 11.4363C129.504 11.431 129.562 11.4786 129.562 11.6846C129.552 12.5564 129.557 13.4282 129.557 14.3C129.557 14.3845 129.557 14.469 129.557 14.5483C129.895 14.0992 130.196 13.6342 130.535 13.2063C130.92 12.7149 131.348 12.2605 131.845 11.8748C132.912 11.0506 134.048 10.9555 135.263 11.5103C135.887 11.7956 136.426 12.2024 136.938 12.6462C137.023 12.7202 137.049 12.7836 136.98 12.8893C136.505 13.6501 136.04 14.4268 135.57 15.214Z" fill="black"/>
<path d="M58.8688 18.4576C58.8688 16.2016 58.8741 13.9508 58.8635 11.6947C58.8635 11.4728 58.9111 11.42 59.133 11.4253C59.9097 11.4411 60.681 11.4358 61.4577 11.4253C61.6321 11.4253 61.6743 11.4728 61.6743 11.6419C61.6691 16.2016 61.6691 20.7612 61.6743 25.3209C61.6743 25.49 61.6321 25.5375 61.4577 25.5375C60.6758 25.5269 59.8885 25.5269 59.1066 25.5375C58.9058 25.5428 58.8635 25.4847 58.8635 25.2892C58.8741 23.0173 58.8688 20.7348 58.8688 18.4576Z" fill="black"/>
<path d="M60.2852 5.4971C61.2098 5.50238 61.9389 6.23679 61.9336 7.15612C61.9284 8.07016 61.1517 8.82042 60.2376 8.80985C59.3711 8.79928 58.5997 8.00148 58.6156 7.1297C58.6262 6.24735 59.3976 5.49181 60.2852 5.4971Z" fill="black"/>
<path d="M45.7924 18.9335C45.7924 17.7341 45.7977 16.54 45.7871 15.3407C45.7871 15.1716 45.8347 15.0659 45.9667 14.9656C46.7223 14.3685 47.5307 13.8824 48.5081 13.7768C50.0562 13.6024 51.2608 14.1783 52.1062 15.4781C52.8459 16.614 52.9885 17.882 52.8564 19.2029C52.7296 20.4445 52.2277 21.496 51.2608 22.3043C50.3838 23.0335 49.3535 23.2289 48.2492 23.1655C47.499 23.1233 46.7646 23.007 46.0407 22.8221C45.8664 22.7746 45.7871 22.7112 45.7924 22.5051C45.7977 21.311 45.7924 20.1223 45.7924 18.9335Z" fill="#FEFEFE"/>
<path d="M117.209 17.0578C116.1 17.0578 114.99 17.0578 113.881 17.0578C113.775 17.0578 113.669 17.079 113.706 16.9046C113.944 15.7792 114.398 14.7859 115.397 14.1255C116.612 13.3224 118.895 13.3224 119.967 14.7173C120.469 15.3671 120.68 16.1121 120.754 16.9152C120.77 17.0737 120.696 17.0631 120.591 17.0631C119.914 17.0631 119.233 17.0631 118.556 17.0631C118.107 17.0578 117.658 17.0578 117.209 17.0578Z" fill="#FEFEFE"/>
</svg>
